Pais_ing,Casos
The United Kingdom,1235
Germany,1054
Spain,802
France,498
United States of America,460
Portugal,402
Canada,300
Netherlands,257
Italy,192
Belgium,117
Switzerland,91
Democratic Republic of the Congo,78
Brazil,78
Nigeria,62
Ireland,39
Israel,38
Austria,37
Sweden,28
Mexico,27
Denmark,20
Ghana,19
Hungary,19
Peru,15
Norway,15
Australia,14
United Arab Emirates,13
Poland,12
Romania,11
Slovenia,9
Chile,8
Czechia,8
Argentina,6
Greece,6
Malta,6
Colombia,5
Luxembourg,5
Cameroon,4
Finland,4
Iceland,4
Benin,3
Central African Republic,3
Bulgaria,3
Congo,2
South Africa,2
Latvia,2
Bahamas,1
Puerto Rico,1
Venezuela (Bolivarian Republic of),1
Lebanon,1
Morocco,1
Croatia,1
Estonia,1
Georgia,1
Gibraltar,1
Serbia,1
Turkey,1
China,1
Republic of Korea,1
Singapore,1
